<?xml version="1.0" standalone="no"?>
<!DOCTYPE svg PUBLIC "-//W3C//DTD SVG 20010904//EN"
 "http://www.w3.org/TR/2001/REC-SVG-20010904/DTD/svg10.dtd">
<svg version="1.0" xmlns="http://www.w3.org/2000/svg"
 width="1123.000000pt" height="1123.000000pt" viewBox="0 0 1123.000000 1123.000000"
 preserveAspectRatio="xMidYMid meet">
<metadata>
Created by potrace 1.11, written by Peter Selinger 2001-2013
</metadata>
<g transform="translate(0.000000,1123.000000) scale(0.100000,-0.100000)"
fill="#000000" stroke="none">
<path d="M3469 10886 c-2 -2 -35 -6 -73 -10 -38 -4 -72 -8 -75 -10 -4 -3 -27
-7 -51 -10 -57 -7 -238 -57 -310 -86 -30 -12 -68 -27 -85 -34 -30 -12 -143
-70 -180 -92 -11 -7 -33 -20 -50 -28 -75 -40 -286 -211 -344 -279 -9 -10 -32
-35 -51 -56 -135 -141 -283 -391 -354 -596 -29 -83 -37 -108 -37 -112 0 -2 -6
-20 -14 -42 -7 -22 -11 -41 -9 -44 3 -2 0 -15 -5 -28 -9 -25 -22 -99 -27 -154
-1 -16 -3 -30 -4 -30 -7 0 -10 -148 -14 -605 -7 -912 -19 -2884 -20 -3432 -1
-326 -5 -528 -10 -528 -6 0 -5 -5 1 -11 8 -8 8 -20 3 -35 -5 -13 -6 -24 -2
-24 9 0 7 -53 -3 -69 -3 -6 -2 -11 3 -11 6 0 7 -14 2 -35 -4 -19 -4 -37 1 -40
4 -3 4 -17 -1 -30 -6 -15 -6 -27 0 -30 6 -3 6 -15 0 -29 -5 -13 -6 -27 -2 -30
8 -8 10 -46 3 -46 -3 0 -6 -11 -6 -25 0 -14 4 -25 8 -25 4 0 4 -8 -1 -17 -4
-10 -7 -27 -6 -38 5 -33 5 -39 0 -660 -6 -863 -8 -1725 -3 -1760 3 -16 8 -52
12 -80 4 -27 9 -59 12 -70 2 -11 7 -33 10 -50 8 -45 11 -60 13 -60 1 0 4 -11
6 -25 7 -39 63 -195 95 -268 17 -37 31 -69 31 -72 0 -3 8 -16 17 -30 9 -14 27
-47 41 -73 28 -53 147 -222 195 -277 49 -56 179 -183 214 -210 18 -14 38 -30
44 -36 26 -23 155 -112 197 -135 25 -13 47 -26 50 -29 9 -9 120 -61 220 -103
70 -29 198 -67 275 -82 166 -32 238 -39 417 -40 76 0 138 -4 138 -8 0 -5 5 -5
12 -1 15 10 138 11 144 2 2 -3 18 -2 36 2 17 5 35 7 40 4 15 -9 79 -10 85 -2
2 5 9 6 14 3 5 -4 294 -8 641 -10 1383 -9 2205 -16 2236 -19 17 -1 32 2 32 7
0 4 5 5 11 1 6 -3 172 -7 368 -8 385 -2 550 9 686 46 22 5 45 11 50 12 6 1 16
5 22 9 7 5 13 6 13 3 0 -18 320 113 383 156 15 11 27 17 27 14 0 -2 24 11 53
30 28 19 60 40 71 47 105 69 309 252 336 301 7 14 19 26 27 26 7 0 13 6 13 14
0 8 4 16 8 18 5 1 26 28 48 58 21 30 41 57 44 60 22 21 169 291 176 325 1 6
17 48 34 95 31 83 36 99 46 150 3 14 8 34 11 45 10 29 16 59 29 145 13 86 14
127 18 505 3 209 5 432 6 497 1 64 -1 121 -4 126 -4 6 -2 14 4 17 8 5 8 11 1
19 -6 7 -8 15 -5 18 3 3 7 365 9 804 11 2019 15 2567 19 2571 2 2 0 20 -4 39
-4 18 -5 34 -1 34 3 0 7 282 8 628 1 345 3 989 4 1432 2 443 0 828 -4 855 -4
28 -9 65 -11 82 -19 145 -97 398 -161 523 -9 16 -16 33 -17 37 0 5 -12 25 -24
45 -13 21 -24 42 -24 48 0 5 -4 10 -9 10 -5 0 -14 14 -21 30 -7 17 -16 30 -21
30 -5 0 -9 5 -9 12 0 10 -73 114 -90 128 -3 3 -16 19 -29 35 -38 50 -133 147
-201 206 -80 69 -186 149 -197 149 -4 0 -26 14 -47 30 -22 17 -45 30 -52 30
-7 0 -14 3 -16 8 -9 21 -269 132 -370 158 -5 1 -9 2 -10 4 -3 2 -3 2 -128 28
-188 41 -219 42 -891 46 -306 2 -561 6 -568 10 -6 4 -11 3 -11 -2 0 -9 -82 -7
-107 3 -7 2 -13 1 -13 -3 0 -4 -19 -7 -42 -6 -24 2 -43 3 -43 4 0 1 -10 3 -22
4 -13 2 -23 -1 -23 -5 0 -4 -12 -5 -27 -2 -39 7 -102 8 -108 1 -3 -3 -22 -2
-42 3 -21 4 -44 4 -54 -1 -9 -5 -19 -7 -22 -3 -3 3 -241 7 -529 9 -288 2 -872
5 -1299 8 -427 3 -778 4 -780 2z m4051 -2159 c0 -5 4 -5 10 -2 15 9 93 -28
124 -60 15 -15 37 -48 47 -73 18 -42 22 -60 35 -157 8 -60 9 -511 1 -580 -20
-177 -67 -243 -192 -269 -35 -8 -236 -9 -281 -2 -45 7 -105 33 -133 59 -22 20
-54 79 -56 102 -1 6 -4 19 -7 30 -27 84 -26 491 1 665 14 91 17 104 39 152 33
74 78 111 159 132 52 14 253 16 253 3z m-3330 -1580 c14 -3 43 -8 64 -11 256
-41 455 -151 583 -321 37 -49 94 -144 98 -165 1 -3 9 -22 18 -44 9 -21 17 -44
17 -50 0 -7 4 -16 9 -22 5 -5 12 -22 15 -39 3 -16 12 -57 20 -90 17 -72 25
-115 31 -175 3 -25 8 -63 11 -85 5 -31 12 -855 14 -1636 l0 -56 68 -6 c87 -7
145 -31 185 -75 7 -7 20 -21 30 -30 9 -9 17 -20 17 -24 0 -5 9 -27 19 -51 29
-62 40 -131 39 -237 -2 -186 -45 -286 -148 -347 -32 -19 -105 -40 -140 -41
-225 -7 -417 -1 -459 13 -54 17 -116 71 -137 118 -8 18 -19 39 -24 47 -5 8
-17 41 -25 72 -9 32 -20 60 -23 62 -4 2 -25 -11 -47 -31 -106 -93 -370 -246
-490 -283 -22 -7 -44 -15 -50 -19 -5 -3 -16 -6 -23 -7 -7 -1 -36 -9 -65 -18
-28 -9 -65 -18 -82 -20 -16 -3 -41 -7 -55 -10 -70 -16 -260 -25 -260 -13 0 5
-6 4 -13 -2 -8 -6 -16 -9 -18 -6 -3 2 -30 7 -60 9 -245 22 -481 145 -619 322
-51 65 -70 94 -64 94 4 0 0 8 -9 18 -32 35 -110 235 -122 312 -2 14 -7 36 -10
50 -40 180 -35 458 11 645 38 153 102 290 189 404 21 28 142 147 175 173 124
97 358 193 540 223 19 3 46 7 60 10 85 16 388 22 490 11 19 -2 66 -7 103 -11
38 -3 78 -8 90 -11 12 -2 36 -6 52 -9 17 -3 41 -8 55 -10 14 -3 36 -7 50 -10
14 -3 37 -7 53 -11 25 -5 27 -3 28 28 2 37 2 36 -5 72 -2 14 0 28 5 32 5 3 7
9 4 14 -3 4 -7 28 -10 51 -3 24 -8 62 -10 84 -3 22 -8 49 -12 60 -4 11 -7 25
-8 30 -3 23 -19 71 -28 83 -5 6 -7 12 -4 12 12 0 -65 121 -97 153 -43 43 -136
105 -136 90 0 -3 -6 -1 -12 5 -37 30 -292 39 -325 12 -2 -2 -6 -3 -10 -4 -48
-11 -158 -60 -233 -103 -92 -54 -115 -68 -120 -73 -15 -18 -270 -156 -270
-146 0 2 -19 -1 -42 -8 -127 -37 -273 22 -333 134 -47 90 -62 262 -30 357 21
63 56 133 67 133 4 0 8 6 8 13 0 14 139 147 155 147 6 0 20 8 31 18 24 22 109
63 195 95 83 31 245 73 319 82 19 3 49 7 65 9 17 2 59 7 95 11 35 3 66 8 68 9
5 5 453 -2 482 -7z m3538 -104 c40 -20 70 -56 77 -93 3 -14 5 -582 6 -1262 l0
-1238 342 -1 c188 -1 356 -3 374 -5 48 -6 137 -48 167 -80 15 -16 34 -45 42
-64 9 -19 20 -42 24 -51 27 -52 30 -250 7 -379 -7 -36 -47 -120 -58 -120 -5 0
-9 -6 -9 -12 -1 -29 -91 -74 -185 -94 -23 -5 -2080 -5 -2110 0 -68 11 -146 48
-178 84 -43 49 -75 135 -82 221 -2 25 -4 48 -5 51 -11 40 8 205 31 267 23 60
94 143 124 143 8 0 15 5 15 12 0 6 3 9 6 5 3 -3 16 -2 28 3 20 7 126 23 151
22 6 -1 19 -1 30 -2 11 -1 34 -1 50 -1 17 1 39 1 50 0 45 0 421 -1 430 0 6 0
21 2 34 3 l24 3 -1 895 0 895 -113 2 c-258 4 -306 6 -354 20 -147 44 -208 161
-208 398 1 108 15 196 36 223 5 6 6 12 3 12 -9 0 31 58 53 80 68 65 131 78
382 80 117 0 214 2 215 3 1 1 129 1 284 0 248 -2 286 -4 318 -20z"/>
<path d="M3807 5244 c-1 -1 -29 -4 -62 -8 -69 -7 -200 -42 -230 -62 -11 -7
-22 -12 -25 -12 -6 2 -58 -31 -80 -50 -54 -47 -102 -102 -116 -132 -38 -82
-44 -97 -54 -144 -11 -50 -14 -182 -6 -222 35 -168 135 -270 303 -310 39 -9
239 -10 288 -1 75 13 82 15 131 32 138 46 277 127 381 222 38 34 42 43 44 88
0 28 0 55 -1 60 -1 6 -1 15 0 20 7 32 6 56 -2 61 -4 3 -5 10 -2 16 11 17 7
349 -4 360 -5 5 -29 14 -53 20 -24 5 -51 11 -59 14 -89 22 -170 37 -212 38
-16 1 -28 3 -28 6 0 5 -207 9 -213 4z"/>
</g>
</svg>
